[gd_scene load_steps=3 format=2]

[ext_resource path="res://draft/level_dummy.tscn" type="PackedScene" id=1]
[ext_resource path="res://main.gd" type="Script" id=2]

[node name="main" type="Node2D"]
script = ExtResource( 2 )

[node name="world" type="Node2D" parent="."]

[node name="level_dummy" parent="world" instance=ExtResource( 1 )]
